Business Data Science Basic
…
# 2.0 Importing Files ----
bikes_tbl <- read_excel(path="G:/Data Science Project-R/DS_101/00_data/01_bike_sales/01_raw_data/bikes.xlsx")
orderlines_tbl <- read_excel("G:/Data Science Project-R/DS_101/00_data/01_bike_sales/01_raw_data/orderlines.xlsx")
bikeshops_tbl  <- read_excel("G:/Data Science Project-R/DS_101/00_data/01_bike_sales/01_raw_data/bikeshops.xlsx")

# 3.0 Examining Data ----

# 4.0 Joining Data ----

left_join(orderlines_tbl, bikes_tbl,by = c("product.id" = "bike.id"))

## # A tibble: 15,644 x 15
##    ...1  order.id order.line order.date          customer.id product.id quantity model    model.year frame.material weight price category    gender url           
##    <chr>    <dbl>      <dbl> <dttm>                    <dbl>      <dbl>    <dbl> <chr>         <dbl> <chr>           <dbl> <dbl> <chr>       <chr>  <chr>         
##  1 1            1          1 2015-01-07 00:00:00           2       2681        1 Spectra~       2021 carbon          13.8   3119 Mountain -~ female https://www.c~
##  2 2            1          2 2015-01-07 00:00:00           2       2411        1 Ultimat~       2020 carbon           7.44  5359 Road - Rac~ unisex https://www.c~
##  3 3            2          1 2015-01-10 00:00:00          10       2629        1 Neuron ~       2021 carbon          14.1   2729 Mountain -~ unisex https://www.c~
##  4 4            2          2 2015-01-10 00:00:00          10       2137        1 Speedma~       2019 carbon           8.8   1749 Road - Tri~ unisex https://www.c~
##  5 5            3          1 2015-01-10 00:00:00           6       2367        1 Stitche~       2020 aluminium       11.5   1219 Mountain -~ unisex https://www.c~
##  6 6            3          2 2015-01-10 00:00:00           6       1973        1 Roadlit~       2020 carbon           8.8   1359 Hybrid / C~ unisex https://www.c~
##  7 7            3          3 2015-01-10 00:00:00           6       2422        1 Speedma~       2020 carbon           8.2   2529 Road - Tri~ female https://www.c~
##  8 8            3          4 2015-01-10 00:00:00           6       2655        1 Inflite~       2021 aluminium        8.85  1559 Road - Cyc~ unisex https://www.c~
##  9 9            3          5 2015-01-10 00:00:00           6       2247        1 Torque ~       2020 carbon          14.4   3899 Mountain -~ unisex https://www.c~
## 10 10           4          1 2015-01-11 00:00:00          22       2408        1 Ultimat~       2020 carbon           6.5   6629 Road - Rac~ unisex https://www.c~
## # ... with 15,634 more rows
…
bike_category_url <- bike_category_tbl$url[1]
#xopen(bike_category_url)

html_bike_category  <- read_html(bike_category_url)
bike_url_tbl        <- html_bike_category %>%
  
  html_nodes(css = ".m-bikegrid__item > a") %>%
  html_attr("href") %>%
  enframe(name = "position", value = "category_url")%>%
  mutate(
  url = glue("https://www.radon-bikes.de{category_url}")
      )
bike_url_tbl 

## # A tibble: 33 x 3
##    position category_url                                                    url                                                                                   
##       <int> <chr>                                                           <glue>                                                                                
##  1        1 /mountainbike/hardtail/jealous/jealous-80-2021/                 https://www.radon-bikes.de/mountainbike/hardtail/jealous/jealous-80-2021/             
##  2        2 /mountainbike/hardtail/jealous/jealous-90-2021/                 https://www.radon-bikes.de/mountainbike/hardtail/jealous/jealous-90-2021/             
##  3        3 /mountainbike/hardtail/jealous/jealous-100-2021/                https://www.radon-bikes.de/mountainbike/hardtail/jealous/jealous-100-2021/            
##  4        4 /mountainbike/hardtail/jealous/jealous-100-ea-2021/             https://www.radon-bikes.de/mountainbike/hardtail/jealous/jealous-100-ea-2021/         
##  5        5 /mountainbike/hardtail/jealous/jealous-100-2020/                https://www.radon-bikes.de/mountainbike/hardtail/jealous/jealous-100-2020/            
##  6        6 /mountainbike/hardtail/jealous/jealous-100-ea-2020/             https://www.radon-bikes.de/mountainbike/hardtail/jealous/jealous-100-ea-2020/         
##  7        7 /mountainbike/hardtail/jealous-frameset/jealous-superlite-1x-1~ https://www.radon-bikes.de/mountainbike/hardtail/jealous-frameset/jealous-superlite-1~
##  8        8 /mountainbike/hardtail/jealous-al/jealous-al-80-2021/           https://www.radon-bikes.de/mountainbike/hardtail/jealous-al/jealous-al-80-2021/       
##  9        9 /mountainbike/hardtail/jealous-al/jealous-al-80-hd-2021/        https://www.radon-bikes.de/mountainbike/hardtail/jealous-al/jealous-al-80-hd-2021/    
## 10       10 /mountainbike/hardtail/jealous-al/1x12/                         https://www.radon-bikes.de/mountainbike/hardtail/jealous-al/1x12/                     
## # ... with 23 more rows
…
